…
# parse HTML tables into a dataframe called CPI
CPI <- map(tables, . %>% 
             html_table(fill=TRUE) %>% 
             janitor::clean_names()) 
  
CPI_components <- CPI[[2]] %>% # the second table on the page has the list of components
  select(title, series_id) 
  
CPI_components  

## # A tibble: 49 x 2
##    title                                                           series_id    
##    <chr>                                                           <chr>        
##  1 Consumer Price Index for All Urban Consumers: Airline Fares in~ CUSR0000SETG~
##  2 Consumer Price Index for All Urban Consumers: Alcoholic Bevera~ CUSR0000SEFW 
##  3 Consumer Price Index for All Urban Consumers: Alcoholic Bevera~ CUSR0000SEFX 
##  4 Consumer Price Index for All Urban Consumers: Alcoholic Bevera~ CUSR0000SAF1~
##  5 Consumer Price Index for All Urban Consumers: All Items in U.S~ CPIAUCSL     
##  6 Consumer Price Index for All Urban Consumers: Apparel in U.S. ~ CPIAPPSL     
##  7 Consumer Price Index for All Urban Consumers: Cereals and Bake~ CUSR0000SAF1~
##  8 Consumer Price Index for All Urban Consumers: Coffee in U.S. C~ CUSR0000SEFP~
##  9 Consumer Price Index for All Urban Consumers: Dairy and Relate~ CUSR0000SEFJ 
## 10 Consumer Price Index for All Urban Consumers: Electricity in U~ CUSR0000SEHF~
## # ... with 39 more rows
…
CPI_yearly_change_all$title <- gsub(pat_1,'',CPI_yearly_change_all$title)
CPI_yearly_change_all$title <- gsub(pat_2,'',CPI_yearly_change_all$title)

# Order the components
Order <- CPI_yearly_change_all %>% 
  filter(date >= "2016-01-01",title != "All Items") %>%
  group_by(title) %>%
  mutate(max_year_change = max(year_change)) %>%
  arrange(desc(max_year_change)) 

Order

## # A tibble: 3,312 x 6
## # Groups:   title [48]
##    series_id      title                date       price year_change max_year_change
##    <chr>          <chr>                <date>     <dbl>       <dbl>           <dbl>
##  1 CUSR0000SETB01 Gasoline (All Types) 2016-01-01  181.    -0.0907            0.562
##  2 CUSR0000SETB01 Gasoline (All Types) 2016-02-01  163.    -0.214             0.562
##  3 CUSR0000SETB01 Gasoline (All Types) 2016-03-01  175.    -0.184             0.562
##  4 CUSR0000SETB01 Gasoline (All Types) 2016-04-01  185.    -0.127             0.562
##  5 CUSR0000SETB01 Gasoline (All Types) 2016-05-01  188.    -0.167             0.562
##  6 CUSR0000SETB01 Gasoline (All Types) 2016-06-01  196.    -0.149             0.562
##  7 CUSR0000SETB01 Gasoline (All Types) 2016-07-01  185.    -0.200             0.562
##  8 CUSR0000SETB01 Gasoline (All Types) 2016-08-01  184.    -0.186             0.562
##  9 CUSR0000SETB01 Gasoline (All Types) 2016-09-01  190.    -0.0603            0.562
## 10 CUSR0000SETB01 Gasoline (All Types) 2016-10-01  198.    -0.00766           0.562
## # ... with 3,302 more rows
…
